3 The submodel trick – Efficient Machine Learning with R
…
The above pseudocode admittedly requires some generosity (or mental gymnastics) to interpret, but the idea is that if fit()ting is indeed the majority of the time spent in resampling, and models_to_fit contains many fewer elements than models in the preceding pseudocode blocks, we should see substantial speedups.

3.1.3 At its most extreme

In the applied example above, we saw a relatively modest speedup. If we want to really show off the power of the submodel trick, in terms of time spent resampling per model evaluated, we can come up with a somewhat silly grid:

bt_grid_regular_go_brrr <-
  bt_grid_regular %>%
  slice_max(trees, by = learn_rate) %>%
  map(.x = c(1, seq(10, max(.$trees), 10)), .f = ~mutate(.y, trees = .x), dfr = .) %>%
  bind_rows()

bt_grid_regular_go_brrr

# A tibble: 804 × 2
   trees learn_rate
   <dbl>      <dbl>
 1     1    0.001  
 2     1    0.00681
 3     1    0.0464 
 4     1    0.316  
 5    10    0.001  
 6    10    0.00681
 7    10    0.0464 
 8    10    0.316  
 9    20    0.001  
10    20    0.00681
# ℹ 794 more rows
…
