2 Models – Efficient Machine Learning with R
…
A graphic representing the tidymodels interface. In order, step 1 “translate”, step 2 “call”, and step 3 “translate”, outline the process of translating from the standardized tidymodels interface to an engine’s specific interface, calling the modeling engine, and translating back to the standardized tidymodels interface. Step 1 and step 3 are in green, while step 2 is in orange.

When thinking about the time allotted to each of the three steps above, we refer to the “translate” steps in green as the tidymodels overhead. The time it takes to “translate” interfaces in steps 1) and 3) is within our control, while the time the modeling engine takes to do it’s thing in step 2) is not.

Let’s demonstrate with an example classification problem. Generating some random data:

d <- simulate_classification(n_rows = 100)

d

# A tibble: 100 × 18
   class   two_factor_1 two_factor_2 non_linear_1 non_linear_2 non_linear_3
   <fct>   <fct>               <dbl> <fct>               <dbl>        <dbl>
 1 class_1 level_1            1.75   level_4           0.361          0.231
 2 class_2 level_1           -0.0230 level_2           0.0840         0.609
 3 class_2 level_4           -2.32   level_4           0.273          0.495
 4 class_2 level_1            0.315  level_2           0.559          0.952
 5 class_2 level_4            0.701  level_2           0.249          0.321
 6 class_2 level_1            0.593  level_2           0.701          0.935
 7 class_1 level_1            0.871  level_2           0.373          0.986
 8 class_1 level_4            0.656  level_3           0.543          0.258
 9 class_1 level_1            1.94   level_2           0.506          0.424
10 class_2 level_1           -0.585  level_5           0.00916        0.207
# ℹ 90 more rows
# ℹ 12 more variables: linear_01 <dbl>, linear_02 <dbl>, linear_03 <dbl>,
#   linear_04 <dbl>, linear_05 <dbl>, linear_06 <dbl>, linear_07 <dbl>,
#   linear_08 <dbl>, linear_09 <dbl>, linear_10 <fct>, linear_11 <fct>,
#   linear_12 <fct>
…
