1 Introduction – Efficient Machine Learning with R
…
First, loading a few needed packages:

library(tidymodels)
library(future)
library(finetune)
library(bonsai)

For the purposes of this example, we’ll simulate a data set of 100,000 rows and 18 columns. The first column, class, is a binary outcome, and the remaining variables are a mix of numerics and factors.

set.seed(1)
d <- simulate_classification(1e5)
d

# A tibble: 100,000 × 18
   class   two_factor_1 two_factor_2 non_linear_1 non_linear_2 non_linear_3
   <fct>   <fct>               <dbl> <fct>               <dbl>        <dbl>
 1 class_1 level_4           -0.336  level_2             0.595        0.724
 2 class_2 level_4            0.468  level_3             0.831        0.493
 3 class_2 level_4           -1.35   level_3             0.342        0.226
 4 class_1 level_1            1.78   level_2             0.203        0.370
 5 class_2 level_4            0.324  level_2             0.505        0.643
 6 class_1 level_4           -0.707  level_2             0.202        0.798
 7 class_2 level_4            0.0438 level_2             0.775        0.788
 8 class_1 level_4            0.941  level_2             0.122        0.571
 9 class_2 level_4            0.485  level_2             0.323        0.308
10 class_2 level_4            0.0648 level_2             0.385        0.191
# ℹ 99,990 more rows
# ℹ 12 more variables: linear_01 <dbl>, linear_02 <dbl>, linear_03 <dbl>,
#   linear_04 <dbl>, linear_05 <dbl>, linear_06 <dbl>, linear_07 <dbl>,
#   linear_08 <dbl>, linear_09 <dbl>, linear_10 <fct>, linear_11 <fct>,
#   linear_12 <fct>
…
The tidymodels team devotes substantial energy to ensuring support for the most performant parallelization technologies, modeling engines, model-specific optimizations, and search techniques. This book will demonstrate how to best make use of these features to reduce the time needed to evaluate machine learning models.

1.4 Datasets

In Section 1.1.1, I used a function simulate_classification() to generate data. This is one of two functions, the other being simulate_regression(), that create the data underlying many of the experiments in this book.

These two functions are adaptations of their similarly named friends sim_classification() and sim_regression() from the modeldata package. They make small changes to those function—namely, introducing factor predictors with some tricky distributions—that surface slowdowns with some modeling engines.

Provided a number of rows, sim_classification() generates a tibble with that many rows and 16 columns:

d_class <- simulate_classification(1000)

d_class

# A tibble: 1,000 × 18
   class   two_factor_1 two_factor_2 non_linear_1 non_linear_2 non_linear_3
   <fct>   <fct>               <dbl> <fct>               <dbl>        <dbl>
 1 class_1 level_2          -0.133   level_3            0.0355       0.770 
 2 class_1 level_2           0.894   level_3            0.356        0.690 
 3 class_2 level_2          -1.59    level_4            0.249        0.650 
 4 class_1 level_1           2.17    level_3            0.879        0.0747
 5 class_1 level_2           0.464   level_1            0.318        0.903 
 6 class_2 level_2          -2.04    level_3            0.321        0.133 
 7 class_2 level_2           1.11    level_3            0.848        0.211 
 8 class_2 level_1          -0.183   level_3            0.381        0.155 
 9 class_2 level_1           0.00202 level_3            0.275        0.0545
10 class_2 level_2           0.198   level_3            0.918        0.715 
# ℹ 990 more rows
# ℹ 12 more variables: linear_01 <dbl>, linear_02 <dbl>, linear_03 <dbl>,
#   linear_04 <dbl>, linear_05 <dbl>, linear_06 <dbl>, linear_07 <dbl>,
#   linear_08 <dbl>, linear_09 <dbl>, linear_10 <fct>, linear_11 <fct>,
#   linear_12 <fct>
…
Distributions of the categorical variables in the simulated data. While factor levels are well-balanced in the outcome class, some factor levels are much more common than others in the predictors, which can lead to instability in many modeling algorithms.

The regression dataset looks quite similar.

d_reg <- simulate_regression(1000)

d_reg

# A tibble: 1,000 × 16
   outcome predictor_01 predictor_02 predictor_03 predictor_04 predictor_05
     <dbl>        <dbl>        <dbl>        <dbl>        <dbl>        <dbl>
 1    6.36       -2.45         2.46          2.85        2.16        -1.28 
 2   -2.11       -4.08         1.64         -3.49        3.21        -3.18 
 3   26.0        -4.95         1.77         -2.21        3.35         5.29 
 4   -1.31       -3.36        -2.95         -4.05       -0.911        5.88 
 5   53.8         0.604       -6.35         -4.89       -5.96        -7.86 
 6  -32.1         3.53        -6.56          2.06       -0.965       -2.11 
 7   24.8         2.59         1.68         -1.88        3.10        -1.35 
 8   11.7         3.79        -1.46         -2.23       -0.467       -0.662
 9    7.19        4.88         1.08          4.17        3.01        -4.15 
10    9.43        2.78        -0.441         1.62        0.452        1.74 
# ℹ 990 more rows
# ℹ 10 more variables: predictor_06 <dbl>, predictor_07 <dbl>,
#   predictor_08 <dbl>, predictor_09 <dbl>, predictor_10 <fct>,
#   predictor_11 <fct>, predictor_12 <fct>, predictor_13 <fct>,
#   predictor_14 <fct>, predictor_15 <fct>
…
