2 Models – Efficient Machine Learning with R
…
A graphic representing the tidymodels interface. In order, step 1 “translate”, step 2 “call”, and step 3 “translate”, outline the process of translating from the standardized tidymodels interface to an engine’s specific interface, calling the modeling engine, and translating back to the standardized tidymodels interface. Step 1 and step 3 are in green, while step 2 is in orange.

When thinking about the time allotted to each of the three steps above, we refer to the “translate” steps in green as the tidymodels overhead. The time it takes to “translate” interfaces in steps 1) and 3) is within our control, while the time the modeling engine takes to do it’s thing in step 2) is not.

Let’s demonstrate with an example classification problem. Generating some random data:

set.seed(1)
d <- simulate_classification(n_rows = 100)

d

# A tibble: 100 × 18
   class   two_factor_1 two_factor_2 non_linear_1 non_linear_2 non_linear_3
   <fct>   <fct>               <dbl> <fct>               <dbl>        <dbl>
 1 class_2 level_1          -1.17    level_1             0.554        0.814
 2 class_1 level_1           0.261   level_2             0.688        0.929
 3 class_2 level_1          -1.61    level_1             0.658        0.147
 4 class_1 level_1           2.14    level_1             0.663        0.750
 5 class_2 level_1           0.0360  level_1             0.472        0.976
 6 class_1 level_2          -0.00837 level_1             0.970        0.975
 7 class_2 level_1           1.05    level_2             0.402        0.351
 8 class_1 level_1           1.49    level_1             0.850        0.394
 9 class_2 level_1           0.967   level_2             0.757        0.951
10 class_2 level_2           0.603   level_1             0.533        0.107
# ℹ 90 more rows
# ℹ 12 more variables: linear_01 <dbl>, linear_02 <dbl>, linear_03 <dbl>,
#   linear_04 <dbl>, linear_05 <dbl>, linear_06 <dbl>, linear_07 <dbl>,
#   linear_08 <dbl>, linear_09 <dbl>, linear_10 <fct>, linear_11 <fct>,
#   linear_12 <fct>
…
